{
    "KPlugin": {
        "Id": "rocs_assignvaluesplugin",
        "Name": "Assign Values Plugin",
        "Name[ca@valencia]": "Connector d'assignació de valors",
        "Name[ca]": "Connector d'assignació de valors",
        "Name[cs]": "Modul pro přiřazování hodnot",
        "Name[de]": "Wertzuweisungs-Modul",
        "Name[el]": "Πρόσθετο ανάθεσης τιμών",
        "Name[en_GB]": "Assign Values Plugin",
        "Name[es]": "Complemento para asignar valores",
        "Name[et]": "Väärtuste omistamise plugin",
        "Name[eu]": "Balioak esleitzeko plugina",
        "Name[fi]": "Sijoita arvot -liitännäinen",
        "Name[fr]": "Module d'extension pour assigner des valeurs",
        "Name[gl]": "Complemento de asignar valores",
        "Name[it]": "Estensione di assegnazione valori",
        "Name[ka]": "მნიშვნელობების მინიჭების დამატება",
        "Name[ko]": "값 할당 플러그인",
        "Name[nl]": "Plug-in voor waarden toekennen",
        "Name[pl]": "Wtyczka przypisywania wartości",
        "Name[pt]": "'Plugin' de Atribuição de Valores",
        "Name[pt_BR]": "Plugin de atribuição de valores",
        "Name[ru]": "Модуль присвоения значений",
        "Name[sk]": "Plugin priradenia hodnôt",
        "Name[sl]": "Vstavek za dodeljevanje vrednosti",
        "Name[sv]": "Insticksprogram för att tilldela värden",
        "Name[tr]": "Değerleri Ata",
        "Name[uk]": "Додаток пов’язування значень",
        "Name[x-test]": "xxAssign Values Pluginxx",
        "Name[zh_CN]": "分配值插件",
        "Name[zh_TW]": "指定值外掛程式",
        "Version": "0.2"
    }
}
