{
    "KPlugin": {
        "Id": "rocs_tgffileformat",
        "Name": "TGF Graph File Format",
        "Name[ca@valencia]": "Format de fitxer de grafs TGF",
        "Name[ca]": "Format de fitxer de grafs TGF",
        "Name[cs]": "Formát souborů grafů TGF",
        "Name[de]": "TGF-Graphendateiformat",
        "Name[el]": "Τύπος αποθήκευσης αρχείων γράφων TGF",
        "Name[en_GB]": "TGF Graph File Format",
        "Name[es]": "Formato de archivo de grafos TGF",
        "Name[et]": "TGF graafifailivorming",
        "Name[eu]": "TGF grafiko fitxategi-formatua",
        "Name[fi]": "TGF-graafitiedostomuoto",
        "Name[fr]": "Format de fichier de graphe « TGF »",
        "Name[gl]": "Formato de ficheiros de gráficos TGF",
        "Name[it]": "Formato di file di grafi TGF",
        "Name[ka]": "TGF გრაფიკის ფაილის ფორმატი",
        "Name[ko]": "TGF 그래프 파일 플러그인",
        "Name[nl]": "Bestandsformaat voor TGF Graph",
        "Name[pl]": "Format plików grafów TGF",
        "Name[pt]": "Formato de Ficheiro de Grafo TGF",
        "Name[pt_BR]": "Formato de arquivo de grafo TGF",
        "Name[ru]": "Поддержка файлов графов TGF",
        "Name[sk]": "Grafický súborový formát TGF",
        "Name[sl]": "Vrsta datotek z grafi TGF",
        "Name[sv]": "TGF-graffilformat",
        "Name[tr]": "TGF Grafik Dosya Biçimi",
        "Name[uk]": "формат файлів графів TGF",
        "Name[x-test]": "xxTGF Graph File Formatxx",
        "Name[zh_CN]": "TGF 图形文件格式",
        "Name[zh_TW]": "TGF 圖形檔案格式"
    }
}
